<?xml version="1.0"?>
<svg xmlns="http://www.w3.org/2000/svg" xmlns:xlink="http://www.w3.org/1999/xlink" version="1.1" id="Capa_1" x="0px" y="0px" viewBox="0 0 426.667 426.667" style="enable-background:new 0 0 426.667 426.667;" xml:space="preserve" width="512px" height="512px"><g><g>
	<g>
		<circle cx="42.667" cy="213.333" r="42.667" data-original="#000000" class="active-path" data-old_color="#000000" fill="#103B46"/>
	</g>
</g><g>
	<g>
		<circle cx="213.333" cy="213.333" r="42.667" data-original="#000000" class="active-path" data-old_color="#000000" fill="#103B46"/>
	</g>
</g><g>
	<g>
		<circle cx="384" cy="213.333" r="42.667" data-original="#000000" class="active-path" data-old_color="#000000" fill="#103B46"/>
	</g>
</g></g> </svg>
