<?xml version="1.0"?>
<svg xmlns="http://www.w3.org/2000/svg" xmlns:xlink="http://www.w3.org/1999/xlink" version="1.1" id="Capa_1" x="0px" y="0px" width="512px" height="512px" viewBox="0 0 98.205 98.206" style="enable-background:new 0 0 98.205 98.206;" xml:space="preserve"><g><g>
	<g>
		<path d="M64.433,24.98c-6.372,1.368-12.651-2.694-14.017-9.07c-1.365-6.377,2.694-12.65,9.07-14.019    c6.374-1.366,12.65,2.696,14.019,9.069C74.872,17.336,70.81,23.615,64.433,24.98z" data-original="#000000" class="active-path" data-old_color="#000000" fill="#092920"/>
		<path d="M1.256,76.202l5.308-2.106l8.736-15.392l11.206-8.227l5.057,2.938l5.206-1.895c0.688-1.658,2.322-2.825,4.231-2.825    c10.637,0,16.82-7.592,17.338-14.854c0.354-3.663,3.234-6.686,6.248-8.146c0,0,1.141-0.624,2.439-0.873    c1.241-0.237,2.683-0.245,2.683-0.245l0.035-0.002c4.088,0.117,8.899,2.397,9.919,7.146l5.458,25.482    c0.327,1.521,0.189,2.97-0.266,4.297c-0.067,0.254-5.729,14.242-5.729,14.242h12.827c3.452,0,6.251,2.8,6.251,6.252    s-2.799,6.25-6.251,6.25H69.842c-2.08,0-4.024-1.035-5.188-2.762c-1.161-1.727-1.387-3.915-0.604-5.842l3.515-8.646l-7.604,2.174    L62.824,88.9c0.617,3.396-1.635,6.648-5.03,7.269c-0.378,0.069-0.755,0.104-1.127,0.104c-2.961-0.001-5.592-2.115-6.143-5.132    l-3.878-21.305c-0.576-3.164,1.34-6.246,4.431-7.13l12.312-3.52l-2.001-9.344c-4.518,5.274-11.369,8.021-20.386,8.021    c-1.113,0-2.119-0.412-2.913-1.071l-4.349,1.583L21.811,81.188l0.509,12.287c0.062,1.49-1.097,2.749-2.588,2.812    c-0.039,0.002-0.075,0.002-0.114,0.002c-1.44,0-2.638-1.136-2.697-2.59l-0.326-7.849l-1.292,8.437    c-0.204,1.335-1.354,2.292-2.668,2.292c-0.136,0-0.274-0.009-0.412-0.031c-1.476-0.228-2.487-1.604-2.262-3.08l2.112-13.782    l-3.62-2.058l-5.728,2.273c-0.239,0.096-0.489,0.14-0.732,0.14c-0.792,0-1.541-0.474-1.852-1.256    C-0.265,77.764,0.235,76.606,1.256,76.202z" data-original="#000000" class="active-path" data-old_color="#000000" fill="#092920"/>
		<path d="M25.419,44.749c-0.351,0.332-0.705,0.666-1.062,0.998c-0.255,0.238,1.198,3.617,1.198,3.617l-10.913,7.895    c-0.735-1.151-1.472-2.307-2.207-3.462c-1.619-2.532-3.162-5.117-5.067-7.449c-0.519-0.634-1.136-1.207-1.784-1.716    c-2.984-2.333-1.129-3.94-0.649-4.22c1.196-0.705,2.516-0.572,3.749,0.078c0.687,0.365,1.367,0.742,2.048,1.122    c0.2,0.111,0.352,0.104,0.541-0.043c0.319-0.242,0.668-0.452,1.008-0.661c1.968-1.196,3.881-0.982,5.986-1.896    c0.713-0.308,5.159-5.405,7.517-4.162c2.571,1.354,2.756,4.174,1.931,6.446C27.231,42.635,26.455,43.778,25.419,44.749z" data-original="#000000" class="active-path" data-old_color="#000000" fill="#092920"/>
	</g>
</g></g> </svg>
