<?xml version="1.0"?>
<svg xmlns="http://www.w3.org/2000/svg" xmlns:xlink="http://www.w3.org/1999/xlink" version="1.1" id="Capa_1" x="0px" y="0px" width="512px" height="512px" viewBox="0 0 43.028 43.028" style="enable-background:new 0 0 43.028 43.028;" xml:space="preserve" class=""><g><g>
	<path d="M39.561,33.971l-0.145,0.174c-4.774,5.728-11.133,8.884-17.902,8.884c-6.77,0-13.128-3.155-17.903-8.884l-0.144-0.174   l0.034-0.223c0.922-6.014,4.064-10.845,8.847-13.606l0.34-0.196l0.271,0.284c2.259,2.37,5.297,3.674,8.554,3.674   s6.295-1.305,8.554-3.674l0.271-0.284l0.34,0.196c4.783,2.761,7.925,7.592,8.848,13.606L39.561,33.971z M21.514,21.489   c5.924,0,10.744-4.82,10.744-10.744C32.258,4.821,27.438,0,21.514,0S10.77,4.821,10.77,10.744S15.59,21.489,21.514,21.489z" data-original="#000000" class="active-path" data-old_color="#000000" fill="#1A6871"/>
</g></g> </svg>
